<?xml version="1.0"?>
<COLLADA version="1.4.0" xmlns="http://www.collada.org/2005/11/COLLADASchema">
<asset>
<contributor>
<author>Wings3D Collada Exporter</author>
<authoring_tool>Wings3D 1.5.3 Collada Exporter</authoring_tool>
<comments/>
<copyright/>
<source_data/>
</contributor>
<created>2014-12-08T02:48:02</created>
<modified>2014-12-08T02:48:02</modified>
<unit meter="0.01" name="centimeter"/>
<up_axis>Y_UP</up_axis>
</asset>
<library_effects><effect id="textures/nexus6/proto_lightred_64_300-fx" name="textures/nexus6/proto_lightred_64_300-fx"><profile_COMMON><technique sid="wings3d"><phong><emission><color>0.000000 0.000000 0.000000 1.000000
</color></emission><ambient><color>1.000000 1.000000 1.000000 1.000000
</color></ambient><diffuse><color>1.000000 1.000000 1.000000 1.000000
</color></diffuse><specular><color>1.000000 1.000000 1.000000 1.000000
</color></specular><shininess><float>1.000000</float></shininess></phong></technique></profile_COMMON></effect><effect id="textures/transit/evil4_techfloors_tfloor_rndholes-fx" name="textures/transit/evil4_techfloors_tfloor_rndholes-fx"><profile_COMMON><technique sid="wings3d"><phong><emission><color>0.000000 0.000000 0.000000 1.000000
</color></emission><ambient><color>1.000000 1.000000 1.000000 1.000000
</color></ambient><diffuse><color>1.000000 1.000000 1.000000 1.000000
</color></diffuse><specular><color>1.000000 1.000000 1.000000 1.000000
</color></specular><shininess><float>1.000000</float></shininess></phong></technique></profile_COMMON></effect></library_effects>

<library_materials><material id="textures/nexus6/proto_lightred_64_300" name="textures/nexus6/proto_lightred_64_300"><instance_effect url="#textures/nexus6/proto_lightred_64_300-fx"/></material><material id="textures/transit/evil4_techfloors_tfloor_rndholes" name="textures/transit/evil4_techfloors_tfloor_rndholes"><instance_effect url="#textures/transit/evil4_techfloors_tfloor_rndholes-fx"/></material></library_materials>
<library_geometries><geometry name="body-0" id="body-0"><mesh><source id="body-0-Pos"><float_array id="body-0-Pos-array" count="786">-6.000000 6.000000 -28.000000 -12.000000 6.000000 -28.000000 -12.000000 6.000000 28.000000 -6.000000 6.000000 28.000000 -6.000000 6.000000 28.000000 -12.000000 6.000000 28.000000 -12.000000 0.000000 22.000000 -6.000000 0.000000 22.000000 -12.000000 0.000000 22.000000 -12.000000 6.000000 28.000000 -12.000000 6.000000 -28.000000 -12.000000 0.000000 -22.000000 -12.000000 0.000000 -22.000000 -6.000000 0.000000 -22.000000 -6.000000 0.000000 22.000000 -12.000000 0.000000 22.000000 -12.000000 6.000000 -28.000000 -6.000000 6.000000 -28.000000 -6.000000 0.000000 -22.000000 -12.000000 0.000000 -22.000000 -6.000000 6.000000 -28.000000 -6.000000 6.000000 28.000000 -6.000000 0.000000 22.000000 -6.000000 0.000000 -22.000000 14.500000 11.000000 26.000000 7.000000 7.000000 44.000000 16.000000 8.000000 32.000000 8.500000 8.000000 32.000000 7.000000 7.000000 44.000000 14.500000 11.000000 26.000000 7.000000 7.000000 44.000000 8.500000 8.000000 32.000000 16.000000 8.000000 32.000000 8.500000 8.000000 32.000000 14.500000 11.000000 26.000000 16.000000 8.000000 32.000000 -3.000000 8.000000 32.000000 3.000000 8.000000 32.000000 0.000000 7.000000 44.000000 3.000000 8.000000 32.000000 -3.000000 8.000000 32.000000 0.000000 11.000000 26.000000 0.000000 7.000000 44.000000 3.000000 8.000000 32.000000 0.000000 11.000000 26.000000 0.000000 11.000000 26.000000 -3.000000 8.000000 32.000000 0.000000 7.000000 44.000000 7.000000 15.000000 18.000000 4.000000 15.000000 18.000000 4.119048 15.000000 20.000000 6.880952 15.000000 20.000000 3.875000 14.000000 23.500000 7.125000 14.000000 23.500000 6.880952 15.000000 20.000000 4.119048 15.000000 20.000000 6.880952 15.000000 20.000000 7.125000 14.000000 23.500000 8.000000 12.000000 24.000000 7.000000 15.000000 18.000000 8.000000 12.000000 24.000000 7.125000 14.000000 23.500000 3.875000 14.000000 23.500000 3.000000 12.000000 24.000000 8.000000 12.000000 24.000000 3.000000 12.000000 24.000000 4.000000 15.000000 18.000000 7.000000 15.000000 18.000000 3.875000 14.000000 23.500000 4.119048 15.000000 20.000000 4.000000 15.000000 18.000000 3.000000 12.000000 24.000000 -16.000000 8.000000 32.000000 -7.000000 7.000000 44.000000 -14.500000 11.000000 26.000000 -14.500000 11.000000 26.000000 -7.000000 7.000000 44.000000 -8.500000 8.000000 32.000000 -8.500000 8.000000 32.000000 -7.000000 7.000000 44.000000 -16.000000 8.000000 32.000000 -16.000000 8.000000 32.000000 -14.500000 11.000000 26.000000 -8.500000 8.000000 32.000000 -4.000000 15.000000 18.000000 -7.000000 15.000000 18.000000 -6.880952 15.000000 20.000000 -4.119048 15.000000 20.000000 -7.125000 14.000000 23.500000 -3.875000 14.000000 23.500000 -4.119048 15.000000 20.000000 -6.880952 15.000000 20.000000 -4.119048 15.000000 20.000000 -3.875000 14.000000 23.500000 -3.000000 12.000000 24.000000 -4.000000 15.000000 18.000000 -3.000000 12.000000 24.000000 -3.875000 14.000000 23.500000 -7.125000 14.000000 23.500000 -8.000000 12.000000 24.000000 -3.000000 12.000000 24.000000 -8.000000 12.000000 24.000000 -7.000000 15.000000 18.000000 -4.000000 15.000000 18.000000 -7.125000 14.000000 23.500000 -6.880952 15.000000 20.000000 -7.000000 15.000000 18.000000 -8.000000 12.000000 24.000000 -8.000000 18.000000 -6.000000 -8.000000 18.000000 1.000000 -3.000000 18.000000 6.000000 3.000000 18.000000 6.000000 8.000000 18.000000 1.000000 8.000000 18.000000 -6.000000 3.000000 18.000000 -11.000000 -3.000000 18.000000 -11.000000 3.000000 16.000000 6.000000 3.000000 18.000000 6.000000 -3.000000 18.000000 6.000000 -3.000000 16.000000 6.000000 8.000000 18.000000 -6.000000 8.000000 18.000000 1.000000 8.000000 16.000000 1.000000 8.000000 16.000000 -6.000000 8.000000 16.000000 1.000000 3.000000 16.000000 6.000000 -3.000000 16.000000 6.000000 -8.000000 16.000000 1.000000 -8.000000 16.000000 -6.000000 -3.000000 16.000000 -11.000000 3.000000 16.000000 -11.000000 8.000000 16.000000 -6.000000 -3.000000 18.000000 -11.000000 3.000000 18.000000 -11.000000 3.000000 16.000000 -11.000000 -3.000000 16.000000 -11.000000 -8.000000 16.000000 1.000000 -8.000000 18.000000 1.000000 -8.000000 18.000000 -6.000000 -8.000000 16.000000 -6.000000 -3.000000 16.000000 6.000000 -3.000000 18.000000 6.000000 -8.000000 18.000000 1.000000 -8.000000 16.000000 1.000000 8.000000 16.000000 1.000000 8.000000 18.000000 1.000000 3.000000 18.000000 6.000000 3.000000 16.000000 6.000000 -3.000000 18.000000 -11.000000 -3.000000 16.000000 -11.000000 -8.000000 16.000000 -6.000000 -8.000000 18.000000 -6.000000 3.000000 18.000000 -11.000000 8.000000 18.000000 -6.000000 8.000000 16.000000 -6.000000 3.000000 16.000000 -11.000000 6.000000 14.000000 -26.000000 -6.000000 14.000000 -26.000000 -6.000000 15.000000 -21.000000 6.000000 15.000000 -21.000000 6.000000 15.000000 -21.000000 -6.000000 15.000000 -21.000000 -6.000000 9.000000 -27.000000 6.000000 9.000000 -27.000000 6.000000 14.000000 -26.000000 6.000000 15.000000 -21.000000 6.000000 9.000000 -27.000000 6.000000 14.000000 -26.000000 6.000000 9.000000 -27.000000 -6.000000 9.000000 -27.000000 -6.000000 14.000000 -26.000000 -6.000000 9.000000 -27.000000 -6.000000 15.000000 -21.000000 -6.000000 14.000000 -26.000000 12.000000 6.000000 -28.000000 6.000000 6.000000 -28.000000 6.000000 6.000000 28.000000 12.000000 6.000000 28.000000 12.000000 6.000000 28.000000 6.000000 6.000000 28.000000 6.000000 0.000000 22.000000 12.000000 0.000000 22.000000 6.000000 0.000000 22.000000 6.000000 6.000000 28.000000 6.000000 6.000000 -28.000000 6.000000 0.000000 -22.000000 6.000000 0.000000 -22.000000 12.000000 0.000000 -22.000000 12.000000 0.000000 22.000000 6.000000 0.000000 22.000000 6.000000 6.000000 -28.000000 12.000000 6.000000 -28.000000 12.000000 0.000000 -22.000000 6.000000 0.000000 -22.000000 12.000000 6.000000 -28.000000 12.000000 6.000000 28.000000 12.000000 0.000000 22.000000 12.000000 0.000000 -22.000000 -12.000000 6.000000 28.000000 12.000000 6.000000 28.000000 16.000000 8.000000 32.000000 -16.000000 8.000000 32.000000 16.000000 8.000000 32.000000 12.000000 6.000000 28.000000 12.000000 6.000000 -28.000000 16.000000 8.000000 -28.000000 12.000000 6.000000 -28.000000 12.000000 6.000000 28.000000 -12.000000 6.000000 28.000000 -12.000000 6.000000 -28.000000 16.000000 8.000000 -28.000000 -16.000000 8.000000 -28.000000 -12.000000 16.000000 -20.000000 12.000000 16.000000 -20.000000 -12.000000 6.000000 -28.000000 -12.000000 6.000000 28.000000 -16.000000 8.000000 32.000000 -16.000000 8.000000 -28.000000 -12.000000 16.000000 -20.000000 -12.000000 16.000000 16.000000 12.000000 16.000000 16.000000 12.000000 16.000000 -20.000000 -12.000000 16.000000 16.000000 -16.000000 8.000000 32.000000 16.000000 8.000000 32.000000 12.000000 16.000000 16.000000 12.000000 16.000000 -20.000000 12.000000 16.000000 16.000000 16.000000 8.000000 32.000000 16.000000 8.000000 -28.000000 -16.000000 8.000000 -28.000000 -16.000000 8.000000 32.000000 -12.000000 16.000000 16.000000 -12.000000 16.000000 -20.000000 -16.000000 8.000000 -28.000000 16.000000 8.000000 -28.000000 12.000000 6.000000 -28.000000 -12.000000 6.000000 -28.000000 6.000000 6.000000 -28.000000 -6.000000 6.000000 -28.000000 -6.000000 6.000000 28.000000 6.000000 6.000000 28.000000 6.000000 4.000000 26.000000 6.000000 6.000000 28.000000 -6.000000 6.000000 28.000000 -6.000000 4.000000 26.000000 6.000000 4.000000 -26.000000 6.000000 6.000000 -28.000000 6.000000 6.000000 28.000000 6.000000 4.000000 26.000000 -6.000000 4.000000 -26.000000 6.000000 4.000000 -26.000000 6.000000 4.000000 26.000000 -6.000000 4.000000 26.000000 -6.000000 6.000000 -28.000000 6.000000 6.000000 -28.000000 6.000000 4.000000 -26.000000 -6.000000 4.000000 -26.000000 -6.000000 4.000000 26.000000 -6.000000 6.000000 28.000000 -6.000000 6.000000 -28.000000 -6.000000 4.000000 -26.000000</float_array><technique_common><accessor count="262" source="#body-0-Pos-array" stride="3"><param name="X" type="float"/><param name="Y" type="float"/><param name="Z" type="float"/></accessor></technique_common></source><source id="body-0-Normal"><float_array id="body-0-Normal-array" count="201">0.000000 1.000000 0.000000 0.000000 -0.707107 0.707107 -1.000000 0.000000 0.000000 0.000000 -1.000000 0.000000 0.000000 -0.707107 -0.707107 1.000000 0.000000 0.000000 0.361256 0.867014 0.343193 -0.429834 0.902652 0.021492 0.000000 -0.996546 -0.083045 0.000000 -0.894427 -0.447214 0.000000 -0.996546 -0.083045 0.000000 -0.894427 -0.447214 0.476731 0.858116 0.190693 -0.476731 0.858116 0.190693 0.000000 1.000000 0.000000 0.000000 0.961524 0.274721 0.909771 0.411563 0.054153 0.000000 0.242536 0.970143 0.000000 -0.894427 -0.447214 -0.909771 0.411563 0.054153 -0.361256 0.867014 0.343193 0.429834 0.902652 0.021492 0.000000 -0.996546 -0.083045 0.000000 -0.894427 -0.447214 0.000000 1.000000 0.000000 0.000000 0.961524 0.274721 0.909771 0.411563 0.054153 0.000000 0.242536 0.970143 0.000000 -0.894427 -0.447214 -0.909771 0.411563 0.054153 0.000000 1.000000 0.000000 0.000000 0.000000 1.000000 1.000000 0.000000 0.000000 0.000000 -1.000000 0.000000 0.000000 0.000000 -1.000000 -1.000000 0.000000 0.000000 -0.707107 0.000000 0.707107 0.707107 0.000000 0.707107 -0.707107 0.000000 -0.707107 0.707107 0.000000 -0.707107 0.000000 0.980581 -0.196116 0.000000 -0.707107 0.707107 1.000000 0.000000 0.000000 0.000000 0.196116 -0.980581 -1.000000 0.000000 0.000000 0.000000 1.000000 0.000000 0.000000 -0.707107 0.707107 -1.000000 0.000000 0.000000 0.000000 -1.000000 0.000000 0.000000 -0.707107 -0.707107 1.000000 0.000000 0.000000 0.000000 -0.894427 0.447214 0.447214 -0.894427 0.000000 0.000000 -1.000000 0.000000 0.000000 0.707107 -0.707107 -0.447214 -0.894427 0.000000 0.000000 1.000000 0.000000 0.000000 0.894427 0.447214 0.894427 0.447214 0.000000 -0.894427 0.447214 0.000000 0.000000 0.000000 -1.000000 0.000000 1.000000 0.000000 0.000000 -0.707107 0.707107 1.000000 0.000000 0.000000 0.000000 -1.000000 0.000000 0.000000 -0.707107 -0.707107 -1.000000 0.000000 0.000000</float_array><technique_common><accessor count="67" source="#body-0-Normal-array" stride="3"><param name="X" type="float"/><param name="Y" type="float"/><param name="Z" type="float"/></accessor></technique_common></source><source id="body-0-UV"><float_array id="body-0-UV-array" count="232">-0.843750 -0.281250 -0.812500 -0.437500 -0.656250 -0.468750 -0.218750 -0.062500 -0.218750 -0.046875 -0.203125 -0.031250 -0.187500 -0.437500 -0.187500 -0.281250 -0.187500 0.656250 -0.187500 0.812500 -0.187500 0.843750 -0.171875 0.000000 -0.156250 -0.125000 -0.125000 -0.250000 -0.125000 -0.062500 -0.125000 0.218750 -0.109375 -0.218750 -0.097656 -0.171875 -0.093750 -0.218750 -0.093750 -0.171875 -0.093750 -0.125000 -0.093750 -0.046875 -0.093750 0.156250 -0.093750 0.171875 -0.093750 0.218750 -0.085938 -0.132812 -0.085938 -0.117188 -0.062500 -0.085938 -0.062500 -0.007812 -0.062500 0.046875 -0.062500 0.804688 -0.055664 -0.101562 -0.055664 0.808594 -0.054688 0.851562 -0.053757 0.835938 -0.050781 -0.218750 -0.046875 -0.218750 -0.046875 -0.203125 -0.046875 -0.171875 -0.046875 -0.132812 -0.046875 -0.117188 -0.046875 0.171875 -0.046875 0.203125 -0.046875 0.218750 -0.039062 -0.312500 -0.032180 0.835938 -0.031250 0.851562 -0.030273 -0.101562 -0.030273 0.808594 -0.023438 -0.218750 -0.023438 -0.132812 -0.023438 -0.117188 -0.023438 -0.085938 -0.023438 -0.046875 -0.023438 0.085938 -0.023438 0.804688 0.000000 -0.312500 0.000000 -0.171875 0.007812 -0.132812 0.007812 -0.117188 0.023438 -0.218750 0.023438 -0.132812 0.023438 -0.117188 0.023438 -0.085938 0.023438 -0.046875 0.023438 0.085938 0.023438 0.804688 0.030273 -0.101562 0.030273 0.808594 0.031250 0.851562 0.032180 0.835938 0.046875 -0.218750 0.046875 -0.203125 0.046875 -0.171875 0.046875 -0.132812 0.046875 -0.117188 0.046875 0.171875 0.046875 0.203125 0.046875 0.218750 0.053757 0.835938 0.054688 0.851562 0.055664 -0.101562 0.055664 0.808594 0.062500 -0.085938 0.062500 -0.007812 0.062500 0.046875 0.062500 0.804688 0.093750 -0.218750 0.093750 -0.171875 0.093750 -0.125000 0.093750 -0.046875 0.093750 0.156250 0.093750 0.171875 0.093750 0.218750 0.125000 -0.250000 0.125000 -0.125000 0.125000 -0.062500 0.125000 0.218750 0.148438 -0.109375 0.164062 -0.109375 0.171875 0.000000 0.187500 -0.437500 0.187500 -0.281250 0.187500 0.656250 0.187500 0.812500 0.187500 0.843750 0.191406 -0.101562 0.195312 -0.085938 0.203125 -0.031250 0.218750 -0.046875 0.250000 -0.062500 1.039062 -0.312500 1.050781 -0.218750 1.097656 -0.171875 1.109375 -0.218750 0.000000 0.000000</float_array><technique_common><accessor count="116" source="#body-0-UV-array" stride="2"><param name="S" type="float"/><param name="T" type="float"/></accessor></technique_common></source><vertices id="body-0-Vtx"><input semantic="POSITION" source="#body-0-Pos"/></vertices><polylist count="5" material="textures/nexus6/proto_lightred_64_300"><input offset="0" semantic="VERTEX" source="#body-0-Vtx"/><input offset="1" semantic="NORMAL" source="#body-0-Normal"/><input offset="2" semantic="TEXCOORD" source="#body-0-UV"/><vcount>3 4 3 4 4</vcount><p>172 44 2 173 44 1 171 44 0 168 43 102 169 43 7 170 43 6 167 43 101 165 42 2 166 42 0 164 42 1 161 41 8 162 41 10 163 41 105 160 41 103 157 40 9 158 40 8 159 40 103 156 40 104</p></polylist><polylist count="62" material="textures/transit/evil4_techfloors_tfloor_rndholes"><input offset="0" semantic="VERTEX" source="#body-0-Vtx"/><input offset="1" semantic="NORMAL" source="#body-0-Normal"/><input offset="2" semantic="TEXCOORD" source="#body-0-UV"/><vcount>4 4 4 4 4 4 4 4 4 4 4 4 4 4 4 4 4 4 4 4 4 4 4 4 4 4 4 4 8 4 4 8 4 4 4 4 4 4 3 3 3 3 4 4 4 4 4 4 3 3 3 3 3 3 3 3 4 4 4 4 4 4</vcount><p>259 66 109 260 66 4 261 66 5 258 66 108 255 65 78 256 65 77 257 65 42 254 65 43 251 64 77 252 64 72 253 64 37 250 64 42 247 63 4 248 63 109 249 63 108 246 63 5 243 62 71 244 62 36 245 62 37 242 62 72 239 61 43 240 61 36 241 61 71 238 61 78 235 60 96 236 60 90 237 60 21 234 60 14 231 59 110 232 59 95 233 59 12 230 59 3 227 58 95 228 58 110 229 58 3 226 58 12 223 57 13 224 57 94 225 57 89 222 57 20 219 56 20 220 56 89 221 56 91 218 56 22 215 55 18 216 55 13 217 55 15 214 55 24 211 54 15 212 54 22 213 54 91 210 54 97 207 53 87 208 53 18 209 53 24 206 53 93 203 52 87 204 52 93 205 52 97 202 52 94 199 51 87 200 51 94 201 51 13 198 51 18 195 50 109 196 50 100 197 50 11 194 50 4 191 49 93 192 49 92 193 49 76 190 49 78 187 48 92 188 48 88 189 48 73 186 48 76 183 47 109 184 47 4 185 47 11 182 47 100 179 46 71 180 46 73 181 46 88 178 46 87 175 45 78 176 45 71 177 45 87 174 45 93 153 39 39 154 39 40 155 39 26 152 39 25 149 38 26 150 38 40 151 38 39 148 38 25 145 37 58 146 37 74 147 37 75 144 37 59 141 36 74 142 36 58 143 36 59 140 36 75 137 35 58 138 35 39 139 35 40 136 35 59 133 34 61 134 34 62 135 34 51 132 34 50 125 33 64 126 33 53 127 33 28 128 33 29 129 33 54 130 33 65 131 33 85 124 33 84 121 32 58 122 32 59 123 32 40 120 32 39 117 31 61 118 31 50 119 31 51 116 31 62 109 30 28 110 30 53 111 30 64 112 30 84 113 30 85 114 30 65 115 30 54 108 30 29 105 29 99 106 29 98 107 29 107 104 29 106 101 28 30 102 28 33 103 28 46 100 28 55 97 27 47 98 27 31 99 27 27 96 27 52 93 26 106 94 26 107 95 26 98 92 26 99 89 25 48 90 25 45 91 25 34 88 25 32 85 24 33 86 24 34 87 24 45 84 24 46 82 23 17 83 23 35 81 23 16 79 22 44 80 22 16 78 22 35 76 21 44 77 21 35 75 21 17 73 20 44 74 20 17 72 20 16 69 19 99 70 19 98 71 19 107 68 19 106 65 18 66 66 18 69 67 18 80 64 18 86 61 17 81 62 17 67 63 17 63 60 17 83 57 16 106 58 16 107 59 16 98 56 16 99 53 15 82 54 15 79 55 15 70 52 15 68 49 14 69 50 14 70 51 14 79 48 14 80 46 13 49 47 13 56 45 13 57 43 12 60 44 12 57 42 12 56 40 11 49 41 11 57 39 11 60 37 10 60 38 10 56 36 10 49 34 9 113 35 9 114 33 9 112 31 8 112 32 8 114 30 8 111 28 7 111 29 7 113 27 7 112 25 6 111 26 6 114 24 6 113 21 5 109 22 5 100 23 5 11 20 5 4 17 4 43 18 4 41 19 4 23 16 4 24 13 3 41 14 3 38 15 3 19 12 3 23 9 2 109 10 2 4 11 2 11 8 2 100 5 1 18 6 1 19 7 1 38 4 1 36 1 0 24 2 0 18 3 0 36 0 0 43</p></polylist></mesh></geometry><geometry name="turret-0" id="turret-0"><mesh><source id="turret-0-Pos"><float_array id="turret-0-Pos-array" count="420">-6.000000 23.000000 4.000000 6.000000 23.000000 4.000000 6.000000 23.000000 -12.000000 -6.000000 23.000000 -12.000000 6.000000 23.000000 4.000000 -6.000000 23.000000 4.000000 -6.000000 18.000000 12.000000 6.000000 18.000000 12.000000 10.000000 18.000000 -20.000000 6.000000 23.000000 -12.000000 6.000000 23.000000 4.000000 10.000000 18.000000 4.000000 -6.000000 18.000000 12.000000 -10.000000 18.000000 4.000000 -10.000000 18.000000 -20.000000 10.000000 18.000000 -20.000000 10.000000 18.000000 4.000000 6.000000 18.000000 12.000000 -6.000000 23.000000 -12.000000 6.000000 23.000000 -12.000000 10.000000 18.000000 -20.000000 -10.000000 18.000000 -20.000000 -6.000000 23.000000 -12.000000 -10.000000 18.000000 -20.000000 -10.000000 18.000000 4.000000 -6.000000 23.000000 4.000000 -6.000000 23.000000 4.000000 -10.000000 18.000000 4.000000 -6.000000 18.000000 12.000000 6.000000 23.000000 4.000000 6.000000 18.000000 12.000000 10.000000 18.000000 4.000000 6.616505 22.229368 1.000000 8.500000 19.875000 1.000000 10.000000 24.000000 6.000000 10.000000 24.000000 6.000000 8.500000 19.875000 1.000000 8.500000 19.875000 -0.250000 9.277778 22.013889 1.539683 7.500000 21.125000 -1.000000 8.500000 19.875000 -0.250000 8.500000 19.875000 1.000000 6.616505 22.229368 1.000000 9.277778 22.013889 1.539683 8.500000 19.875000 -0.250000 7.500000 21.125000 -1.000000 7.500000 21.125000 -1.000000 6.616505 22.229368 1.000000 10.000000 24.000000 6.000000 9.277778 22.013889 1.539683 2.000000 25.000000 1.000000 -2.000000 25.000000 1.000000 -2.000000 25.000000 3.000000 2.000000 25.000000 3.000000 2.000000 23.000000 3.000000 2.000000 25.000000 3.000000 -2.000000 25.000000 3.000000 -2.000000 23.000000 3.000000 2.000000 23.000000 -1.000000 2.000000 25.000000 1.000000 2.000000 25.000000 3.000000 2.000000 23.000000 3.000000 -2.000000 23.000000 -1.000000 2.000000 23.000000 -1.000000 2.000000 23.000000 3.000000 -2.000000 23.000000 3.000000 -2.000000 25.000000 1.000000 2.000000 25.000000 1.000000 2.000000 23.000000 -1.000000 -2.000000 23.000000 -1.000000 -2.000000 23.000000 3.000000 -2.000000 25.000000 3.000000 -2.000000 25.000000 1.000000 -2.000000 23.000000 -1.000000 6.000000 24.000000 -4.000000 -6.000000 24.000000 -4.000000 -6.000000 24.000000 -3.000000 6.000000 24.000000 -3.000000 6.000000 23.000000 -3.000000 6.000000 24.000000 -3.000000 -6.000000 24.000000 -3.000000 -6.000000 23.000000 -3.000000 6.000000 23.000000 -4.000000 6.000000 24.000000 -4.000000 6.000000 24.000000 -3.000000 6.000000 23.000000 -3.000000 -6.000000 23.000000 -4.000000 6.000000 23.000000 -4.000000 6.000000 23.000000 -3.000000 -6.000000 23.000000 -3.000000 -6.000000 24.000000 -4.000000 6.000000 24.000000 -4.000000 6.000000 23.000000 -4.000000 -6.000000 23.000000 -4.000000 -6.000000 23.000000 -3.000000 -6.000000 24.000000 -3.000000 -6.000000 24.000000 -4.000000 -6.000000 23.000000 -4.000000 -10.000000 24.000000 6.000000 -8.500000 19.875000 1.000000 -6.616505 22.229368 1.000000 -9.277778 22.013889 1.539683 -8.500000 19.875000 -0.250000 -8.500000 19.875000 1.000000 -10.000000 24.000000 6.000000 -6.616505 22.229368 1.000000 -8.500000 19.875000 1.000000 -8.500000 19.875000 -0.250000 -7.500000 21.125000 -1.000000 -7.500000 21.125000 -1.000000 -8.500000 19.875000 -0.250000 -9.277778 22.013889 1.539683 -6.616505 22.229368 1.000000 -7.500000 21.125000 -1.000000 -9.277778 22.013889 1.539683 -10.000000 24.000000 6.000000 2.000000 22.375000 -15.750000 -2.000000 22.375000 -15.750000 -2.000000 22.375000 -13.000000 2.000000 22.375000 -13.000000 -2.000000 18.625000 -19.000000 2.000000 18.625000 -19.000000 2.000000 22.375000 -13.000000 -2.000000 22.375000 -13.000000 2.000000 20.625000 -18.250000 2.000000 22.375000 -15.750000 2.000000 22.375000 -13.000000 2.000000 18.625000 -19.000000 -2.000000 20.625000 -18.250000 2.000000 20.625000 -18.250000 2.000000 18.625000 -19.000000 -2.000000 18.625000 -19.000000 2.000000 20.625000 -18.250000 -2.000000 20.625000 -18.250000 -2.000000 22.375000 -15.750000 2.000000 22.375000 -15.750000 -2.000000 20.625000 -18.250000 -2.000000 18.625000 -19.000000 -2.000000 22.375000 -13.000000 -2.000000 22.375000 -15.750000</float_array><technique_common><accessor count="140" source="#turret-0-Pos-array" stride="3"><param name="X" type="float"/><param name="Y" type="float"/><param name="Z" type="float"/></accessor></technique_common></source><source id="turret-0-Normal"><float_array id="turret-0-Normal-array" count="108">0.000000 1.000000 0.000000 0.000000 0.847998 0.529999 0.780869 0.624695 0.000000 0.000000 -1.000000 0.000000 0.000000 0.847998 -0.529999 -0.780869 0.624695 0.000000 -0.727393 0.581914 0.363696 0.727393 0.581914 0.363696 -0.624805 -0.499844 0.599813 0.939793 -0.341743 0.000000 -0.780869 -0.624695 -0.000000 0.754939 0.237088 -0.611438 0.158009 0.892290 -0.422908 0.000000 1.000000 0.000000 0.000000 0.000000 1.000000 1.000000 0.000000 0.000000 0.000000 -1.000000 0.000000 0.000000 0.707107 -0.707107 -1.000000 0.000000 0.000000 0.000000 1.000000 0.000000 0.000000 0.000000 1.000000 1.000000 0.000000 0.000000 0.000000 -1.000000 0.000000 0.000000 0.000000 -1.000000 -1.000000 0.000000 0.000000 0.624805 -0.499844 0.599813 -0.939793 -0.341743 0.000000 0.780869 -0.624695 -0.000000 -0.754939 0.237088 -0.611438 -0.158009 0.892290 -0.422908 0.000000 1.000000 0.000000 0.000000 -0.847998 0.529999 1.000000 0.000000 0.000000 0.000000 0.351123 -0.936329 0.000000 0.819232 -0.573462 -1.000000 0.000000 0.000000</float_array><technique_common><accessor count="36" source="#turret-0-Normal-array" stride="3"><param name="X" type="float"/><param name="Y" type="float"/><param name="Z" type="float"/></accessor></technique_common></source><source id="turret-0-UV"><float_array id="turret-0-UV-array" count="144">-0.593750 -0.582031 -0.570312 -0.644531 -0.492188 -0.699219 -0.406250 -0.699219 -0.312500 -0.179688 -0.289931 -0.040303 -0.234375 0.039062 -0.206766 -0.023438 -0.187500 -0.750000 -0.187500 -0.718750 -0.187500 0.093750 -0.187500 0.125000 -0.156250 -0.132812 -0.125000 -0.750000 -0.125000 -0.718750 -0.093750 -0.750000 -0.093750 -0.718750 -0.093750 -0.171875 -0.078125 -0.031250 -0.078125 0.156250 -0.062500 -0.644531 -0.062500 -0.582031 -0.062500 0.406250 -0.062500 0.492188 -0.062500 0.570312 -0.062500 0.593750 -0.046875 -0.093750 -0.046875 -0.031250 -0.046875 0.093750 -0.031250 -0.718750 -0.007812 -0.613281 0.031250 -0.781250 0.031250 -0.613281 0.031250 -0.171875 0.031250 -0.132812 0.046875 -0.093750 0.046875 -0.031250 0.046875 0.093750 0.048115 -0.680122 0.062500 -0.644531 0.062500 -0.582031 0.062500 0.406250 0.062500 0.492188 0.062500 0.570312 0.062500 0.593750 0.078125 -0.031250 0.078125 0.156250 0.093750 -0.781250 0.093750 -0.718750 0.093750 -0.132812 0.187500 -0.750000 0.187500 -0.742188 0.187500 -0.718750 0.187500 0.093750 0.187500 0.125000 0.843750 -0.781250 0.843750 -0.718750 0.843750 -0.093750 0.843750 -0.031250 0.843750 0.031250 0.960938 -0.660156 0.968750 -0.781250 0.968750 -0.718750 0.968750 -0.093750 0.968750 -0.031250 0.968750 0.031250 0.984375 -0.621094 1.023438 -0.694668 1.023438 -0.621094 1.040303 -0.687934 1.179688 -0.750000 0.000000 0.000000</float_array><technique_common><accessor count="72" source="#turret-0-UV-array" stride="2"><param name="S" type="float"/><param name="T" type="float"/></accessor></technique_common></source><vertices id="turret-0-Vtx"><input semantic="POSITION" source="#turret-0-Pos"/></vertices><polylist count="28" material="textures/nexus6/proto_lightred_64_300"><input offset="0" semantic="VERTEX" source="#turret-0-Vtx"/><input offset="1" semantic="NORMAL" source="#turret-0-Normal"/><input offset="2" semantic="TEXCOORD" source="#turret-0-UV"/><vcount>4 4 4 4 4 4 4 3 4 4 3 4 4 4 4 4 4 4 4 4 4 4 4 4 3 4 4 3</vcount><p>137 35 0 138 35 3 139 35 2 136 35 1 133 34 24 134 34 23 135 34 42 132 34 43 129 33 39 130 33 40 131 33 21 128 33 20 125 32 2 126 32 3 127 32 0 124 32 1 121 31 44 122 31 41 123 31 22 120 31 25 117 30 23 118 30 22 119 30 41 116 30 42 113 29 6 114 29 5 115 29 4 112 29 7 110 28 66 111 28 69 109 28 60 106 27 68 107 27 66 108 27 60 105 27 67 102 26 30 103 26 32 104 26 51 101 26 38 99 25 68 100 25 67 98 25 70 95 24 15 96 24 13 97 24 14 94 24 16 91 23 50 92 23 52 93 23 9 90 23 8 87 22 54 88 22 53 89 22 10 86 22 11 83 21 13 84 21 15 85 21 16 82 21 14 79 20 50 80 20 8 81 20 9 78 20 52 75 19 11 76 19 10 77 19 53 74 19 54 71 18 47 72 18 31 73 18 29 70 18 48 67 17 64 68 17 65 69 17 59 66 17 58 63 16 65 64 16 63 65 16 57 62 16 59 59 15 31 60 15 47 61 15 48 58 15 29 55 14 61 56 14 55 57 14 56 54 14 62 51 13 58 52 13 57 53 13 63 50 13 64 47 12 7 48 12 4 49 12 5 46 12 6 44 11 66 45 11 60 43 11 69 40 10 66 41 10 68 42 10 67 39 10 60 36 9 32 37 9 30 38 9 38 35 9 51 33 8 68 34 8 70 32 8 67</p></polylist><polylist count="8" material="textures/transit/evil4_techfloors_tfloor_rndholes"><input offset="0" semantic="VERTEX" source="#turret-0-Vtx"/><input offset="1" semantic="NORMAL" source="#turret-0-Normal"/><input offset="2" semantic="TEXCOORD" source="#turret-0-UV"/><vcount>3 3 4 4 6 4 4 4</vcount><p>30 7 49 31 7 34 29 7 33 27 6 34 28 6 49 26 6 33 23 5 12 24 5 34 25 5 33 22 5 17 19 4 37 20 4 46 21 4 19 18 4 28 13 3 18 14 3 19 15 3 46 16 3 45 17 3 35 12 3 26 9 2 17 10 2 33 11 2 34 8 2 12 5 1 27 6 1 26 7 1 35 4 1 36 1 0 36 2 0 37 3 0 28 0 0 27</p></polylist></mesh></geometry><geometry name="barrel2-0" id="barrel2-0"><mesh><source id="barrel2-0-Pos"><float_array id="barrel2-0-Pos-array" count="72">2.000000 27.000000 -13.000000 -2.000000 27.000000 -13.000000 -2.000000 25.000000 -12.000000 2.000000 25.000000 -12.000000 -2.000000 18.000000 -22.000000 2.000000 18.000000 -22.000000 2.000000 25.000000 -12.000000 -2.000000 25.000000 -12.000000 2.000000 20.000000 -23.000000 2.000000 27.000000 -13.000000 2.000000 25.000000 -12.000000 2.000000 18.000000 -22.000000 -2.000000 20.000000 -23.000000 2.000000 20.000000 -23.000000 2.000000 18.000000 -22.000000 -2.000000 18.000000 -22.000000 2.000000 20.000000 -23.000000 -2.000000 20.000000 -23.000000 -2.000000 27.000000 -13.000000 2.000000 27.000000 -13.000000 -2.000000 20.000000 -23.000000 -2.000000 18.000000 -22.000000 -2.000000 25.000000 -12.000000 -2.000000 27.000000 -13.000000</float_array><technique_common><accessor count="24" source="#barrel2-0-Pos-array" stride="3"><param name="X" type="float"/><param name="Y" type="float"/><param name="Z" type="float"/></accessor></technique_common></source><source id="barrel2-0-Normal"><float_array id="barrel2-0-Normal-array" count="18">0.000000 0.447214 0.894427 0.000000 -0.819232 0.573462 1.000000 0.000000 0.000000 0.000000 -0.447214 -0.894427 0.000000 0.819232 -0.573462 -1.000000 0.000000 0.000000</float_array><technique_common><accessor count="6" source="#barrel2-0-Normal-array" stride="3"><param name="X" type="float"/><param name="Y" type="float"/><param name="Z" type="float"/></accessor></technique_common></source><source id="barrel2-0-UV"><float_array id="barrel2-0-UV-array" count="42">-0.718750 -0.625000 -0.687500 -0.562500 -0.406250 -0.843750 -0.375000 -0.781250 -0.062500 -0.843750 -0.062500 -0.781250 -0.062500 -0.625000 -0.062500 -0.562500 -0.062500 0.375000 -0.062500 0.406250 -0.062500 0.687500 -0.062500 0.718750 0.062500 -0.843750 0.062500 -0.781250 0.062500 -0.625000 0.062500 -0.562500 0.062500 0.375000 0.062500 0.406250 0.062500 0.687500 0.062500 0.718750 0.000000 0.000000</float_array><technique_common><accessor count="21" source="#barrel2-0-UV-array" stride="2"><param name="S" type="float"/><param name="T" type="float"/></accessor></technique_common></source><vertices id="barrel2-0-Vtx"><input semantic="POSITION" source="#barrel2-0-Pos"/></vertices><polylist count="6" material="textures/nexus6/proto_lightred_64_300"><input offset="0" semantic="VERTEX" source="#barrel2-0-Vtx"/><input offset="1" semantic="NORMAL" source="#barrel2-0-Normal"/><input offset="2" semantic="TEXCOORD" source="#barrel2-0-UV"/><vcount>4 4 4 4 4 4</vcount><p>21 5 1 22 5 3 23 5 2 20 5 0 17 4 11 18 4 9 19 4 17 16 4 19 13 3 14 14 3 15 15 3 7 12 3 6 9 2 2 10 2 3 11 2 1 8 2 0 5 1 18 6 1 16 7 1 8 4 1 10 1 0 4 2 0 5 3 0 13 0 0 12</p></polylist></mesh></geometry><geometry name="antennas-0" id="antennas-0"><mesh><source id="antennas-0-Pos"><float_array id="antennas-0-Pos-array" count="144">-5.000000 31.000000 -11.500000 -5.500000 31.000000 -11.500000 -5.500000 31.000000 -11.000000 -5.000000 31.000000 -11.000000 -5.000000 23.000000 -11.000000 -5.000000 31.000000 -11.000000 -5.500000 31.000000 -11.000000 -5.500000 23.000000 -11.000000 -5.000000 23.000000 -11.500000 -5.000000 31.000000 -11.500000 -5.000000 31.000000 -11.000000 -5.000000 23.000000 -11.000000 -5.500000 23.000000 -11.500000 -5.000000 23.000000 -11.500000 -5.000000 23.000000 -11.000000 -5.500000 23.000000 -11.000000 -5.500000 31.000000 -11.500000 -5.000000 31.000000 -11.500000 -5.000000 23.000000 -11.500000 -5.500000 23.000000 -11.500000 -5.500000 23.000000 -11.000000 -5.500000 31.000000 -11.000000 -5.500000 31.000000 -11.500000 -5.500000 23.000000 -11.500000 5.500000 31.000000 -11.500000 5.000000 31.000000 -11.500000 5.000000 31.000000 -11.000000 5.500000 31.000000 -11.000000 5.500000 23.000000 -11.000000 5.500000 31.000000 -11.000000 5.000000 31.000000 -11.000000 5.000000 23.000000 -11.000000 5.500000 23.000000 -11.500000 5.500000 31.000000 -11.500000 5.500000 31.000000 -11.000000 5.500000 23.000000 -11.000000 5.000000 23.000000 -11.500000 5.500000 23.000000 -11.500000 5.500000 23.000000 -11.000000 5.000000 23.000000 -11.000000 5.000000 31.000000 -11.500000 5.500000 31.000000 -11.500000 5.500000 23.000000 -11.500000 5.000000 23.000000 -11.500000 5.000000 23.000000 -11.000000 5.000000 31.000000 -11.000000 5.000000 31.000000 -11.500000 5.000000 23.000000 -11.500000</float_array><technique_common><accessor count="48" source="#antennas-0-Pos-array" stride="3"><param name="X" type="float"/><param name="Y" type="float"/><param name="Z" type="float"/></accessor></technique_common></source><source id="antennas-0-Normal"><float_array id="antennas-0-Normal-array" count="36">0.000000 1.000000 0.000000 0.000000 0.000000 1.000000 1.000000 0.000000 0.000000 0.000000 -1.000000 0.000000 0.000000 0.000000 -1.000000 -1.000000 0.000000 0.000000 0.000000 1.000000 0.000000 0.000000 0.000000 1.000000 1.000000 0.000000 0.000000 0.000000 -1.000000 0.000000 0.000000 0.000000 -1.000000 -1.000000 0.000000 0.000000</float_array><technique_common><accessor count="12" source="#antennas-0-Normal-array" stride="3"><param name="X" type="float"/><param name="Y" type="float"/><param name="Z" type="float"/></accessor></technique_common></source><source id="antennas-0-UV"><float_array id="antennas-0-UV-array" count="42">-0.359375 -0.937500 -0.359375 -0.687500 -0.343750 -0.937500 -0.343750 -0.687500 0.203125 -0.937500 0.203125 -0.687500 0.203125 0.000000 0.203125 0.250000 0.203125 0.359375 0.203125 0.375000 0.218750 -0.937500 0.218750 -0.687500 0.218750 0.000000 0.218750 0.250000 0.218750 0.359375 0.218750 0.375000 0.625000 -0.937500 0.625000 -0.687500 0.640625 -0.937500 0.640625 -0.687500 0.000000 0.000000</float_array><technique_common><accessor count="21" source="#antennas-0-UV-array" stride="2"><param name="S" type="float"/><param name="T" type="float"/></accessor></technique_common></source><vertices id="antennas-0-Vtx"><input semantic="POSITION" source="#antennas-0-Pos"/></vertices><polylist count="12" material="textures/nexus6/proto_lightred_64_300"><input offset="0" semantic="VERTEX" source="#antennas-0-Vtx"/><input offset="1" semantic="NORMAL" source="#antennas-0-Normal"/><input offset="2" semantic="TEXCOORD" source="#antennas-0-UV"/><vcount>4 4 4 4 4 4 4 4 4 4 4 4</vcount><p>45 11 18 46 11 16 47 11 17 44 11 19 41 10 12 42 10 13 43 10 7 40 10 6 37 9 15 38 9 14 39 9 8 36 9 9 33 8 0 34 8 2 35 8 3 32 8 1 29 7 10 30 7 4 31 7 5 28 7 11 25 6 9 26 6 8 27 6 14 24 6 15 21 5 18 22 5 16 23 5 17 20 5 19 17 4 12 18 4 13 19 4 7 16 4 6 13 3 15 14 3 14 15 3 8 12 3 9 9 2 0 10 2 2 11 2 3 8 2 1 5 1 10 6 1 4 7 1 5 4 1 11 1 0 9 2 0 8 3 0 14 0 0 15</p></polylist></mesh></geometry><geometry name="dish-0" id="dish-0"><mesh><source id="dish-0-Pos"><float_array id="dish-0-Pos-array" count="72">6.000000 28.000000 -4.000000 -6.000000 28.000000 -4.000000 -6.000000 28.000000 -3.000000 6.000000 28.000000 -3.000000 6.000000 24.000000 -1.000000 6.000000 28.000000 -3.000000 -6.000000 28.000000 -3.000000 -6.000000 24.000000 -1.000000 6.000000 24.000000 -6.000000 6.000000 28.000000 -4.000000 6.000000 28.000000 -3.000000 6.000000 24.000000 -1.000000 -6.000000 24.000000 -6.000000 6.000000 24.000000 -6.000000 6.000000 24.000000 -1.000000 -6.000000 24.000000 -1.000000 -6.000000 28.000000 -4.000000 6.000000 28.000000 -4.000000 6.000000 24.000000 -6.000000 -6.000000 24.000000 -6.000000 -6.000000 24.000000 -1.000000 -6.000000 28.000000 -3.000000 -6.000000 28.000000 -4.000000 -6.000000 24.000000 -6.000000</float_array><technique_common><accessor count="24" source="#dish-0-Pos-array" stride="3"><param name="X" type="float"/><param name="Y" type="float"/><param name="Z" type="float"/></accessor></technique_common></source><source id="dish-0-Normal"><float_array id="dish-0-Normal-array" count="18">0.000000 1.000000 0.000000 0.000000 0.447214 0.894427 1.000000 0.000000 0.000000 0.000000 -1.000000 0.000000 0.000000 0.447214 -0.894427 -1.000000 0.000000 0.000000</float_array><technique_common><accessor count="6" source="#dish-0-Normal-array" stride="3"><param name="X" type="float"/><param name="Y" type="float"/><param name="Z" type="float"/></accessor></technique_common></source><source id="dish-0-UV"><float_array id="dish-0-UV-array" count="32">-0.125000 0.062500 -0.125000 0.187500 -0.125000 0.968750 -0.125000 1.031250 -0.125000 1.062500 -0.125000 1.125000 -0.062500 0.062500 -0.031250 0.062500 0.031250 0.187500 0.250000 0.062500 0.250000 0.187500 0.250000 0.968750 0.250000 1.031250 0.250000 1.062500 0.250000 1.125000 0.000000 0.000000</float_array><technique_common><accessor count="16" source="#dish-0-UV-array" stride="2"><param name="S" type="float"/><param name="T" type="float"/></accessor></technique_common></source><vertices id="dish-0-Vtx"><input semantic="POSITION" source="#dish-0-Pos"/></vertices><polylist count="6" material="textures/nexus6/proto_lightred_64_300"><input offset="0" semantic="VERTEX" source="#dish-0-Vtx"/><input offset="1" semantic="NORMAL" source="#dish-0-Normal"/><input offset="2" semantic="TEXCOORD" source="#dish-0-UV"/><vcount>4 4 4 4 4 4</vcount><p>21 5 7 22 5 6 23 5 1 20 5 8 17 4 9 18 4 10 19 4 1 16 4 0 13 3 14 14 3 11 15 3 2 12 3 5 9 2 6 10 2 7 11 2 8 8 2 1 5 1 9 6 1 0 7 1 1 4 1 10 1 0 4 2 0 3 3 0 12 0 0 13</p></polylist></mesh></geometry><geometry name="barrel-0" id="barrel-0"><mesh><source id="barrel-0-Pos"><float_array id="barrel-0-Pos-array" count="72">1.000000 21.000000 6.000000 -1.000000 21.000000 6.000000 -1.000000 21.000000 32.000000 1.000000 21.000000 32.000000 2.000000 19.000000 32.000000 1.000000 21.000000 32.000000 -1.000000 21.000000 32.000000 -2.000000 19.000000 32.000000 2.000000 19.000000 6.000000 1.000000 21.000000 6.000000 1.000000 21.000000 32.000000 2.000000 19.000000 32.000000 -2.000000 19.000000 6.000000 2.000000 19.000000 6.000000 2.000000 19.000000 32.000000 -2.000000 19.000000 32.000000 -1.000000 21.000000 6.000000 1.000000 21.000000 6.000000 2.000000 19.000000 6.000000 -2.000000 19.000000 6.000000 -2.000000 19.000000 32.000000 -1.000000 21.000000 32.000000 -1.000000 21.000000 6.000000 -2.000000 19.000000 6.000000</float_array><technique_common><accessor count="24" source="#barrel-0-Pos-array" stride="3"><param name="X" type="float"/><param name="Y" type="float"/><param name="Z" type="float"/></accessor></technique_common></source><source id="barrel-0-Normal"><float_array id="barrel-0-Normal-array" count="18">0.000000 1.000000 0.000000 0.000000 0.000000 1.000000 0.894427 0.447214 0.000000 0.000000 -1.000000 0.000000 0.000000 0.000000 -1.000000 -0.894427 0.447214 0.000000</float_array><technique_common><accessor count="6" source="#barrel-0-Normal-array" stride="3"><param name="X" type="float"/><param name="Y" type="float"/><param name="Z" type="float"/></accessor></technique_common></source><source id="barrel-0-UV"><float_array id="barrel-0-UV-array" count="42">-0.015625 -0.148438 -0.015625 -0.140625 -0.015625 0.726562 -0.015625 0.929688 -0.007812 -0.164062 -0.007812 -0.156250 -0.007812 0.726562 -0.007812 0.929688 0.007812 -0.164062 0.007812 -0.156250 0.007812 0.726562 0.007812 0.929688 0.015625 -0.148438 0.015625 -0.140625 0.015625 0.726562 0.015625 0.929688 0.070312 -0.156250 0.070312 -0.140625 0.273438 -0.156250 0.273438 -0.140625 0.000000 0.000000</float_array><technique_common><accessor count="21" source="#barrel-0-UV-array" stride="2"><param name="S" type="float"/><param name="T" type="float"/></accessor></technique_common></source><vertices id="barrel-0-Vtx"><input semantic="POSITION" source="#barrel-0-Pos"/></vertices><polylist count="6" material="textures/transit/evil4_techfloors_tfloor_rndholes"><input offset="0" semantic="VERTEX" source="#barrel-0-Vtx"/><input offset="1" semantic="NORMAL" source="#barrel-0-Normal"/><input offset="2" semantic="TEXCOORD" source="#barrel-0-UV"/><vcount>4 4 4 4 4 4</vcount><p>21 5 18 22 5 16 23 5 17 20 5 19 17 4 9 18 4 13 19 4 1 16 4 5 13 3 15 14 3 14 15 3 2 12 3 3 9 2 16 10 2 18 11 2 19 8 2 17 5 1 8 6 1 4 7 1 0 4 1 12 1 0 7 2 0 6 3 0 10 0 0 11</p></polylist></mesh></geometry></library_geometries>
<library_visual_scenes><visual_scene id="Scene" name="Scene">
<node layer="L1" id="body-0L1" name="body"><translate sid="translate">0.00000 0.00000 0.00000</translate><rotate sid="rotateZ">0 0 1 0.00000</rotate><rotate sid="rotateY">0 1 0 0.00000</rotate><rotate sid="rotateX">1 0 0 0.00000</rotate><scale sid="scale">1.0000 1.0000 1.0000</scale><instance_geometry url="#body-0"><bind_material><technique_common><instance_material symbol="textures/nexus6/proto_lightred_64_300" target="#textures/nexus6/proto_lightred_64_300"><bind_vertex_input input_semantic="TEXCOORD" input_set="1" semantic="CHANNEL1"/></instance_material><instance_material symbol="textures/transit/evil4_techfloors_tfloor_rndholes" target="#textures/transit/evil4_techfloors_tfloor_rndholes"><bind_vertex_input input_semantic="TEXCOORD" input_set="1" semantic="CHANNEL1"/></instance_material></technique_common></bind_material></instance_geometry>
<node layer="L1" id="turret-0L1" name="turret"><translate sid="translate">0.00000 0.00000 0.00000</translate><rotate sid="rotateZ">0 0 1 0.00000</rotate><rotate sid="rotateY">0 1 0 0.00000</rotate><rotate sid="rotateX">1 0 0 0.00000</rotate><scale sid="scale">1.0000 1.0000 1.0000</scale><instance_geometry url="#turret-0"><bind_material><technique_common><instance_material symbol="textures/nexus6/proto_lightred_64_300" target="#textures/nexus6/proto_lightred_64_300"><bind_vertex_input input_semantic="TEXCOORD" input_set="1" semantic="CHANNEL1"/></instance_material><instance_material symbol="textures/transit/evil4_techfloors_tfloor_rndholes" target="#textures/transit/evil4_techfloors_tfloor_rndholes"><bind_vertex_input input_semantic="TEXCOORD" input_set="1" semantic="CHANNEL1"/></instance_material></technique_common></bind_material></instance_geometry>
<node layer="L1" id="barrel2-0L1" name="barrel2"><translate sid="translate">0.00000 0.00000 0.00000</translate><rotate sid="rotateZ">0 0 1 0.00000</rotate><rotate sid="rotateY">0 1 0 0.00000</rotate><rotate sid="rotateX">1 0 0 0.00000</rotate><scale sid="scale">1.0000 1.0000 1.0000</scale><instance_geometry url="#barrel2-0"><bind_material><technique_common><instance_material symbol="textures/nexus6/proto_lightred_64_300" target="#textures/nexus6/proto_lightred_64_300"><bind_vertex_input input_semantic="TEXCOORD" input_set="1" semantic="CHANNEL1"/></instance_material></technique_common></bind_material></instance_geometry></node>
<node layer="L1" id="antennas-0L1" name="antennas"><translate sid="translate">0.00000 0.00000 0.00000</translate><rotate sid="rotateZ">0 0 1 0.00000</rotate><rotate sid="rotateY">0 1 0 0.00000</rotate><rotate sid="rotateX">1 0 0 0.00000</rotate><scale sid="scale">1.0000 1.0000 1.0000</scale><instance_geometry url="#antennas-0"><bind_material><technique_common><instance_material symbol="textures/nexus6/proto_lightred_64_300" target="#textures/nexus6/proto_lightred_64_300"><bind_vertex_input input_semantic="TEXCOORD" input_set="1" semantic="CHANNEL1"/></instance_material></technique_common></bind_material></instance_geometry></node>
<node layer="L1" id="dish-0L1" name="dish"><translate sid="translate">0.00000 0.00000 0.00000</translate><rotate sid="rotateZ">0 0 1 0.00000</rotate><rotate sid="rotateY">0 1 0 0.00000</rotate><rotate sid="rotateX">1 0 0 0.00000</rotate><scale sid="scale">1.0000 1.0000 1.0000</scale><instance_geometry url="#dish-0"><bind_material><technique_common><instance_material symbol="textures/nexus6/proto_lightred_64_300" target="#textures/nexus6/proto_lightred_64_300"><bind_vertex_input input_semantic="TEXCOORD" input_set="1" semantic="CHANNEL1"/></instance_material></technique_common></bind_material></instance_geometry></node>
<node layer="L1" id="barrel-0L1" name="barrel"><translate sid="translate">0.00000 0.00000 0.00000</translate><rotate sid="rotateZ">0 0 1 0.00000</rotate><rotate sid="rotateY">0 1 0 0.00000</rotate><rotate sid="rotateX">1 0 0 0.00000</rotate><scale sid="scale">1.0000 1.0000 1.0000</scale><instance_geometry url="#barrel-0"><bind_material><technique_common><instance_material symbol="textures/transit/evil4_techfloors_tfloor_rndholes" target="#textures/transit/evil4_techfloors_tfloor_rndholes"><bind_vertex_input input_semantic="TEXCOORD" input_set="1" semantic="CHANNEL1"/></instance_material></technique_common></bind_material></instance_geometry></node></node></node>
</visual_scene></library_visual_scenes>
<scene><instance_visual_scene url="#Scene"/></scene>
</COLLADA>