<?xml version="1.0"?>
<COLLADA version="1.4.0" xmlns="http://www.collada.org/2005/11/COLLADASchema">
<asset>
<contributor>
<author>Wings3D Collada Exporter</author>
<authoring_tool>Wings3D 1.5.3 Collada Exporter</authoring_tool>
<comments/>
<copyright/>
<source_data/>
</contributor>
<created>2014-12-07T21:04:57</created>
<modified>2014-12-07T21:04:57</modified>
<unit meter="0.01" name="centimeter"/>
<up_axis>Y_UP</up_axis>
</asset>
<library_effects><effect id="textures/transit/evil4_techfloors_tfloor_rndholes-fx" name="textures/transit/evil4_techfloors_tfloor_rndholes-fx"><profile_COMMON><technique sid="wings3d"><phong><emission><color>0.000000 0.000000 0.000000 1.000000
</color></emission><ambient><color>1.000000 1.000000 1.000000 1.000000
</color></ambient><diffuse><color>1.000000 1.000000 1.000000 1.000000
</color></diffuse><specular><color>1.000000 1.000000 1.000000 1.000000
</color></specular><shininess><float>1.000000</float></shininess></phong></technique></profile_COMMON></effect></library_effects>

<library_materials><material id="textures/transit/evil4_techfloors_tfloor_rndholes" name="textures/transit/evil4_techfloors_tfloor_rndholes"><instance_effect url="#textures/transit/evil4_techfloors_tfloor_rndholes-fx"/></material></library_materials>
<library_geometries><geometry name="body-0" id="body-0"><mesh><source id="body-0-Pos"><float_array id="body-0-Pos-array" count="732">-12.000000 6.000000 26.000000 12.000000 6.000000 26.000000 14.000000 8.000000 28.000000 -14.000000 8.000000 28.000000 14.000000 8.000000 28.000000 12.000000 6.000000 26.000000 12.000000 6.000000 -22.000000 14.000000 8.000000 -22.000000 12.000000 6.000000 -22.000000 12.000000 6.000000 26.000000 -12.000000 6.000000 26.000000 -12.000000 6.000000 -22.000000 -11.000000 16.000000 -20.000000 11.000000 16.000000 -20.000000 14.000000 8.000000 -22.000000 -14.000000 8.000000 -22.000000 -12.000000 6.000000 -22.000000 -12.000000 6.000000 26.000000 -14.000000 8.000000 28.000000 -14.000000 8.000000 -22.000000 -11.000000 16.000000 -20.000000 -11.000000 16.000000 16.000000 11.000000 16.000000 16.000000 11.000000 16.000000 -20.000000 -11.000000 16.000000 16.000000 -14.000000 8.000000 28.000000 14.000000 8.000000 28.000000 11.000000 16.000000 16.000000 11.000000 16.000000 -20.000000 11.000000 16.000000 16.000000 14.000000 8.000000 28.000000 14.000000 8.000000 -22.000000 -14.000000 8.000000 -22.000000 -14.000000 8.000000 28.000000 -11.000000 16.000000 16.000000 -11.000000 16.000000 -20.000000 -14.000000 8.000000 -22.000000 14.000000 8.000000 -22.000000 12.000000 6.000000 -22.000000 -12.000000 6.000000 -22.000000 -14.000000 8.000000 28.000000 -5.000000 7.000000 36.000000 -12.500000 12.000000 22.000000 -12.500000 12.000000 22.000000 -5.000000 7.000000 36.000000 -6.500000 8.000000 28.000000 -5.000000 7.000000 36.000000 -14.000000 8.000000 28.000000 -6.500000 8.000000 28.000000 -14.000000 8.000000 28.000000 -12.500000 12.000000 22.000000 -6.500000 8.000000 28.000000 -3.000000 8.000000 28.000000 3.000000 8.000000 28.000000 0.000000 7.000000 36.000000 3.000000 8.000000 28.000000 -3.000000 8.000000 28.000000 0.000000 12.000000 22.000000 0.000000 7.000000 36.000000 3.000000 8.000000 28.000000 0.000000 12.000000 22.000000 0.000000 12.000000 22.000000 -3.000000 8.000000 28.000000 0.000000 7.000000 36.000000 12.500000 12.000000 22.000000 5.000000 7.000000 36.000000 14.000000 8.000000 28.000000 6.500000 8.000000 28.000000 5.000000 7.000000 36.000000 12.500000 12.000000 22.000000 5.000000 7.000000 36.000000 6.500000 8.000000 28.000000 14.000000 8.000000 28.000000 6.500000 8.000000 28.000000 12.500000 12.000000 22.000000 14.000000 8.000000 28.000000 -4.000000 14.000000 19.000000 -7.000000 14.000000 19.000000 -6.809524 14.000000 21.000000 -4.190476 14.000000 21.000000 -7.095238 13.000000 23.000000 -3.904762 13.000000 23.000000 -4.190476 14.000000 21.000000 -6.809524 14.000000 21.000000 -4.190476 14.000000 21.000000 -3.904762 13.000000 23.000000 -3.000000 11.000000 23.500000 -4.000000 14.000000 19.000000 -3.000000 11.000000 23.500000 -3.904762 13.000000 23.000000 -7.095238 13.000000 23.000000 -8.000000 11.000000 23.500000 -3.000000 11.000000 23.500000 -8.000000 11.000000 23.500000 -7.000000 14.000000 19.000000 -4.000000 14.000000 19.000000 -7.095238 13.000000 23.000000 -6.809524 14.000000 21.000000 -7.000000 14.000000 19.000000 -8.000000 11.000000 23.500000 7.000000 14.000000 19.000000 4.000000 14.000000 19.000000 4.190476 14.000000 21.000000 6.809524 14.000000 21.000000 3.904762 13.000000 23.000000 7.095238 13.000000 23.000000 6.809524 14.000000 21.000000 4.190476 14.000000 21.000000 6.809524 14.000000 21.000000 7.095238 13.000000 23.000000 8.000000 11.000000 23.500000 7.000000 14.000000 19.000000 8.000000 11.000000 23.500000 7.095238 13.000000 23.000000 3.904762 13.000000 23.000000 3.000000 11.000000 23.500000 8.000000 11.000000 23.500000 3.000000 11.000000 23.500000 4.000000 14.000000 19.000000 7.000000 14.000000 19.000000 3.904762 13.000000 23.000000 4.190476 14.000000 21.000000 4.000000 14.000000 19.000000 3.000000 11.000000 23.500000 -6.000000 17.000000 -4.250000 -6.000000 17.000000 0.250000 -2.250000 17.000000 4.000000 2.250000 17.000000 4.000000 6.000000 17.000000 0.250000 6.000000 17.000000 -4.250000 2.250000 17.000000 -8.000000 -2.250000 17.000000 -8.000000 2.250000 16.000000 4.000000 2.250000 17.000000 4.000000 -2.250000 17.000000 4.000000 -2.250000 16.000000 4.000000 6.000000 17.000000 -4.250000 6.000000 17.000000 0.250000 6.000000 16.000000 0.250000 6.000000 16.000000 -4.250000 6.000000 16.000000 0.250000 2.250000 16.000000 4.000000 -2.250000 16.000000 4.000000 -6.000000 16.000000 0.250000 -6.000000 16.000000 -4.250000 -2.250000 16.000000 -8.000000 2.250000 16.000000 -8.000000 6.000000 16.000000 -4.250000 -2.250000 17.000000 -8.000000 2.250000 17.000000 -8.000000 2.250000 16.000000 -8.000000 -2.250000 16.000000 -8.000000 -6.000000 16.000000 0.250000 -6.000000 17.000000 0.250000 -6.000000 17.000000 -4.250000 -6.000000 16.000000 -4.250000 -2.250000 16.000000 4.000000 -2.250000 17.000000 4.000000 -6.000000 17.000000 0.250000 -6.000000 16.000000 0.250000 6.000000 16.000000 0.250000 6.000000 17.000000 0.250000 2.250000 17.000000 4.000000 2.250000 16.000000 4.000000 -2.250000 17.000000 -8.000000 -2.250000 16.000000 -8.000000 -6.000000 16.000000 -4.250000 -6.000000 17.000000 -4.250000 2.250000 17.000000 -8.000000 6.000000 17.000000 -4.250000 6.000000 16.000000 -4.250000 2.250000 16.000000 -8.000000 -6.000000 6.000000 -22.000000 -12.000000 6.000000 -22.000000 -12.000000 6.000000 26.000000 -6.000000 6.000000 26.000000 -6.000000 6.000000 26.000000 -12.000000 6.000000 26.000000 -12.000000 0.000000 20.000000 -6.000000 0.000000 20.000000 -12.000000 0.000000 20.000000 -12.000000 6.000000 26.000000 -12.000000 6.000000 -22.000000 -12.000000 0.000000 -16.000000 -12.000000 0.000000 -16.000000 -6.000000 0.000000 -16.000000 -6.000000 0.000000 20.000000 -12.000000 0.000000 20.000000 -12.000000 6.000000 -22.000000 -6.000000 6.000000 -22.000000 -6.000000 0.000000 -16.000000 -12.000000 0.000000 -16.000000 -6.000000 6.000000 -22.000000 -6.000000 6.000000 26.000000 -6.000000 0.000000 20.000000 -6.000000 0.000000 -16.000000 6.000000 6.000000 -22.000000 -6.000000 6.000000 -22.000000 -6.000000 6.000000 26.000000 6.000000 6.000000 26.000000 6.000000 4.000000 24.000000 6.000000 6.000000 26.000000 -6.000000 6.000000 26.000000 -6.000000 4.000000 24.000000 6.000000 4.000000 -20.000000 6.000000 6.000000 -22.000000 6.000000 6.000000 26.000000 6.000000 4.000000 24.000000 -6.000000 4.000000 -20.000000 6.000000 4.000000 -20.000000 6.000000 4.000000 24.000000 -6.000000 4.000000 24.000000 -6.000000 6.000000 -22.000000 6.000000 6.000000 -22.000000 6.000000 4.000000 -20.000000 -6.000000 4.000000 -20.000000 -6.000000 4.000000 24.000000 -6.000000 6.000000 26.000000 -6.000000 6.000000 -22.000000 -6.000000 4.000000 -20.000000 12.000000 6.000000 -22.000000 6.000000 6.000000 -22.000000 6.000000 6.000000 26.000000 12.000000 6.000000 26.000000 12.000000 6.000000 26.000000 6.000000 6.000000 26.000000 6.000000 0.000000 20.000000 12.000000 0.000000 20.000000 6.000000 0.000000 20.000000 6.000000 6.000000 26.000000 6.000000 6.000000 -22.000000 6.000000 0.000000 -16.000000 6.000000 0.000000 -16.000000 12.000000 0.000000 -16.000000 12.000000 0.000000 20.000000 6.000000 0.000000 20.000000 6.000000 6.000000 -22.000000 12.000000 6.000000 -22.000000 12.000000 0.000000 -16.000000 6.000000 0.000000 -16.000000 12.000000 6.000000 -22.000000 12.000000 6.000000 26.000000 12.000000 0.000000 20.000000 12.000000 0.000000 -16.000000</float_array><technique_common><accessor count="244" source="#body-0-Pos-array" stride="3"><param name="X" type="float"/><param name="Y" type="float"/><param name="Z" type="float"/></accessor></technique_common></source><source id="body-0-Normal"><float_array id="body-0-Normal-array" count="186">0.000000 -0.707107 0.707107 0.707107 -0.707107 0.000000 0.000000 -1.000000 0.000000 0.000000 0.242536 -0.970143 -0.707107 -0.707107 0.000000 0.000000 1.000000 0.000000 0.000000 0.832050 0.554700 0.936329 0.351123 0.000000 -0.936329 0.351123 0.000000 0.000000 0.000000 -1.000000 -0.324033 0.822546 0.467355 0.554700 0.832050 0.000000 0.000000 -0.992278 -0.124035 0.000000 -0.832050 -0.554700 0.000000 -0.992278 -0.124035 0.000000 -0.832050 -0.554700 0.503645 0.813581 0.290565 -0.503645 0.813581 0.290565 0.324033 0.822546 0.467355 -0.554700 0.832050 0.000000 0.000000 -0.992278 -0.124035 0.000000 -0.832050 -0.554700 0.000000 1.000000 0.000000 0.000000 0.894427 0.447214 0.899541 0.428353 0.085671 0.000000 0.242536 0.970143 0.000000 -0.832050 -0.554700 -0.899541 0.428353 0.085671 0.000000 1.000000 0.000000 0.000000 0.894427 0.447214 0.899541 0.428353 0.085671 0.000000 0.242536 0.970143 0.000000 -0.832050 -0.554700 -0.899541 0.428353 0.085671 0.000000 1.000000 0.000000 0.000000 0.000000 1.000000 1.000000 0.000000 0.000000 0.000000 -1.000000 0.000000 0.000000 0.000000 -1.000000 -1.000000 0.000000 0.000000 -0.707107 0.000000 0.707107 0.707107 0.000000 0.707107 -0.707107 0.000000 -0.707107 0.707107 0.000000 -0.707107 0.000000 1.000000 0.000000 0.000000 -0.707107 0.707107 -1.000000 0.000000 0.000000 0.000000 -1.000000 0.000000 0.000000 -0.707107 -0.707107 1.000000 0.000000 0.000000 0.000000 1.000000 0.000000 0.000000 -0.707107 0.707107 1.000000 0.000000 0.000000 0.000000 -1.000000 0.000000 0.000000 -0.707107 -0.707107 -1.000000 0.000000 0.000000 0.000000 1.000000 0.000000 0.000000 -0.707107 0.707107 -1.000000 0.000000 0.000000 0.000000 -1.000000 0.000000 0.000000 -0.707107 -0.707107 1.000000 0.000000 0.000000</float_array><technique_common><accessor count="62" source="#body-0-Normal-array" stride="3"><param name="X" type="float"/><param name="Y" type="float"/><param name="Z" type="float"/></accessor></technique_common></source><source id="body-0-UV"><float_array id="body-0-UV-array" count="202">-0.171875 -0.062500 -0.171875 -0.046875 -0.156250 -0.125000 -0.156250 -0.031250 -0.125000 0.000000 -0.109375 -0.218750 -0.109375 -0.062500 -0.109375 0.171875 -0.097656 -0.171875 -0.093750 -0.203125 -0.093750 -0.156250 -0.093750 -0.046875 -0.093750 0.125000 -0.093750 0.171875 -0.085938 -0.125000 -0.085938 0.156250 -0.062500 -0.183594 -0.062500 -0.132812 -0.062500 -0.125000 -0.062500 -0.085938 -0.055432 -0.179688 -0.055432 -0.101562 -0.054688 -0.148438 -0.053199 -0.164062 -0.050781 -0.218750 -0.046875 -0.203125 -0.046875 -0.187500 -0.046875 -0.156250 -0.046875 -0.001953 -0.046875 0.033203 -0.046875 0.125000 -0.046875 0.156250 -0.046875 0.171875 -0.039062 -0.281250 -0.033203 -0.132812 -0.033203 -0.125000 -0.032738 -0.164062 -0.031250 -0.148438 -0.030506 -0.179688 -0.030506 -0.101562 -0.023438 -0.218750 -0.023438 -0.183594 -0.023438 -0.085938 -0.017578 -0.132812 -0.017578 -0.125000 -0.017578 -0.031250 -0.017578 0.062500 0.000000 -0.281250 0.000000 -0.171875 0.001953 -0.132812 0.001953 -0.125000 0.017578 -0.132812 0.017578 -0.125000 0.017578 -0.031250 0.017578 0.062500 0.023438 -0.218750 0.023438 -0.183594 0.023438 -0.085938 0.030506 -0.179688 0.030506 -0.101562 0.031250 -0.148438 0.031250 -0.132812 0.031250 -0.125000 0.032738 -0.164062 0.039062 -0.281250 0.046875 -0.203125 0.046875 -0.187500 0.046875 -0.156250 0.046875 -0.001953 0.046875 0.033203 0.046875 0.125000 0.046875 0.156250 0.046875 0.171875 0.050781 -0.218750 0.053199 -0.164062 0.054688 -0.148438 0.055432 -0.179688 0.055432 -0.101562 0.062500 -0.183594 0.062500 -0.085938 0.085938 -0.125000 0.085938 0.156250 0.093750 -0.203125 0.093750 -0.156250 0.093750 -0.046875 0.093750 0.125000 0.093750 0.171875 0.097656 -0.171875 0.109375 -0.218750 0.109375 -0.062500 0.109375 0.171875 0.125000 -0.125000 0.148438 -0.109375 0.156250 0.000000 0.164062 -0.109375 0.179688 -0.101562 0.183594 -0.085938 0.187500 -0.031250 0.203125 -0.046875 0.218750 -0.062500 0.000000 0.000000</float_array><technique_common><accessor count="101" source="#body-0-UV-array" stride="2"><param name="S" type="float"/><param name="T" type="float"/></accessor></technique_common></source><vertices id="body-0-Vtx"><input semantic="POSITION" source="#body-0-Pos"/></vertices><polylist count="62" material="textures/transit/evil4_techfloors_tfloor_rndholes"><input offset="0" semantic="VERTEX" source="#body-0-Vtx"/><input offset="1" semantic="NORMAL" source="#body-0-Normal"/><input offset="2" semantic="TEXCOORD" source="#body-0-UV"/><vcount>4 4 4 4 4 4 4 4 4 4 4 4 4 4 4 4 4 4 4 4 4 4 4 4 8 4 4 8 4 4 4 4 4 4 4 4 4 4 4 4 3 3 3 3 3 3 3 3 3 3 3 3 4 4 4 4 4 4 4 4 4 4</vcount><p>241 61 98 242 61 93 243 61 4 240 61 1 237 60 86 238 60 85 239 60 70 236 60 72 233 59 85 234 59 83 235 59 67 232 59 70 229 58 98 230 58 1 231 58 4 228 58 93 225 57 65 226 57 67 227 57 83 224 57 82 221 56 72 222 56 65 223 56 82 220 56 86 217 55 98 218 55 1 219 55 3 216 55 97 213 54 72 214 54 71 215 54 31 212 54 32 209 53 71 210 53 66 211 53 26 208 53 31 205 52 1 206 52 98 207 52 97 204 52 3 201 51 65 202 51 25 203 51 26 200 51 66 197 50 32 198 50 25 199 50 65 196 50 72 193 49 98 194 49 93 195 49 4 192 49 1 189 48 32 190 48 30 191 48 12 188 48 13 185 47 30 186 47 27 187 47 10 184 47 12 181 46 98 182 46 1 183 46 4 180 46 93 177 45 9 178 45 10 179 45 27 176 45 25 173 44 13 174 44 9 175 44 25 172 44 32 169 43 34 170 43 35 171 43 18 168 43 17 165 42 18 166 42 35 167 42 34 164 42 17 161 41 49 162 41 61 163 41 62 160 41 50 157 40 61 158 40 49 159 40 50 156 40 62 153 39 49 154 39 34 155 39 35 152 39 50 149 38 51 150 38 52 151 38 44 148 38 43 141 37 53 142 37 45 143 37 28 144 37 29 145 37 46 146 37 54 147 37 69 140 37 68 137 36 49 138 36 50 139 36 35 136 36 34 133 35 51 134 35 43 135 35 44 132 35 52 125 34 28 126 34 45 127 34 53 128 34 68 129 34 69 130 34 54 131 34 46 124 34 29 121 33 94 122 33 92 123 33 96 120 33 95 117 32 56 118 32 60 119 32 75 116 32 78 113 31 77 114 31 59 115 31 57 112 31 79 109 30 95 110 30 96 111 30 92 108 30 94 105 29 76 106 29 74 107 29 63 104 29 58 101 28 60 102 28 63 103 28 74 100 28 75 97 27 94 98 27 92 99 27 96 96 27 95 93 26 16 94 26 22 95 26 37 92 26 41 89 25 39 90 25 21 91 25 19 88 25 42 85 24 95 86 24 96 87 24 92 84 24 94 81 23 38 82 23 36 83 23 23 80 23 20 77 22 22 78 22 23 79 22 36 76 22 37 74 21 87 75 21 88 73 21 73 71 20 73 72 20 88 70 20 64 68 19 64 69 19 87 67 19 73 65 18 64 66 18 88 64 18 87 62 17 40 63 17 47 61 17 48 59 16 55 60 16 48 58 16 47 56 15 40 57 15 48 55 15 55 53 14 55 54 14 47 52 14 40 50 13 8 51 13 24 49 13 5 47 12 5 48 12 24 46 12 33 44 11 33 45 11 24 43 11 8 41 10 33 42 10 8 40 10 5 37 9 89 38 9 84 39 9 11 36 9 6 33 8 99 34 8 91 35 8 2 32 8 0 29 7 91 30 7 99 31 7 0 28 7 2 25 6 5 26 6 88 27 6 80 24 6 14 21 5 14 22 5 80 23 5 81 20 5 15 17 4 9 18 4 5 19 4 7 16 4 13 13 3 80 14 3 89 15 3 6 12 3 14 9 2 82 10 2 9 11 2 13 8 2 86 5 1 82 6 1 86 7 1 90 4 1 88 1 0 82 2 0 88 3 0 5 0 0 9</p></polylist></mesh></geometry><geometry name="Brush6-0" id="Brush6-0"><mesh><source id="Brush6-0-Pos"><float_array id="Brush6-0-Pos-array" count="168">-6.000000 21.000000 8.000000 6.000000 21.000000 8.000000 6.000000 21.000000 -12.000000 -6.000000 21.000000 -12.000000 -6.000000 21.000000 8.000000 -6.000000 17.000000 12.000000 6.000000 17.000000 12.000000 6.000000 21.000000 8.000000 6.000000 21.000000 8.000000 8.000000 17.000000 8.000000 8.000000 17.000000 -16.000000 6.000000 21.000000 -12.000000 -6.000000 17.000000 12.000000 -8.000000 17.000000 8.000000 -8.000000 17.000000 -16.000000 8.000000 17.000000 -16.000000 8.000000 17.000000 8.000000 6.000000 17.000000 12.000000 8.000000 17.000000 -16.000000 -8.000000 17.000000 -16.000000 -6.000000 21.000000 -12.000000 6.000000 21.000000 -12.000000 -6.000000 21.000000 -12.000000 -8.000000 17.000000 -16.000000 -8.000000 17.000000 8.000000 -6.000000 21.000000 8.000000 -6.000000 21.000000 8.000000 -8.000000 17.000000 8.000000 -6.000000 17.000000 12.000000 8.000000 17.000000 8.000000 6.000000 21.000000 8.000000 6.000000 17.000000 12.000000 0.750000 22.000000 -6.500000 -0.750000 22.000000 -6.500000 -0.750000 22.000000 -2.000000 0.750000 22.000000 -2.000000 0.750000 21.000000 -2.000000 0.750000 22.000000 -2.000000 -0.750000 22.000000 -2.000000 -0.750000 21.000000 -2.000000 0.750000 21.000000 -6.500000 0.750000 22.000000 -6.500000 0.750000 22.000000 -2.000000 0.750000 21.000000 -2.000000 -0.750000 21.000000 -6.500000 0.750000 21.000000 -6.500000 0.750000 21.000000 -2.000000 -0.750000 21.000000 -2.000000 -0.750000 22.000000 -6.500000 0.750000 22.000000 -6.500000 0.750000 21.000000 -6.500000 -0.750000 21.000000 -6.500000 -0.750000 21.000000 -2.000000 -0.750000 22.000000 -2.000000 -0.750000 22.000000 -6.500000 -0.750000 21.000000 -6.500000</float_array><technique_common><accessor count="56" source="#Brush6-0-Pos-array" stride="3"><param name="X" type="float"/><param name="Y" type="float"/><param name="Z" type="float"/></accessor></technique_common></source><source id="Brush6-0-Normal"><float_array id="Brush6-0-Normal-array" count="42">0.000000 1.000000 0.000000 0.000000 0.707107 0.707107 0.894427 0.447214 0.000000 0.000000 -1.000000 0.000000 0.000000 0.707107 -0.707107 -0.894427 0.447214 0.000000 -0.816497 0.408248 0.408248 0.816497 0.408248 0.408248 0.000000 1.000000 0.000000 0.000000 0.000000 1.000000 1.000000 0.000000 0.000000 0.000000 -1.000000 0.000000 0.000000 0.000000 -1.000000 -1.000000 0.000000 0.000000</float_array><technique_common><accessor count="14" source="#Brush6-0-Normal-array" stride="3"><param name="X" type="float"/><param name="Y" type="float"/><param name="Z" type="float"/></accessor></technique_common></source><source id="Brush6-0-UV"><float_array id="Brush6-0-UV-array" count="56">-0.125000 -0.132812 -0.093750 -0.164062 -0.062500 -0.062500 -0.062500 0.125000 -0.050781 -0.171875 -0.050781 -0.164062 -0.046875 -0.093750 -0.046875 -0.062500 -0.046875 0.093750 -0.015625 -0.171875 -0.015625 -0.164062 -0.005859 -0.171875 -0.005859 -0.164062 -0.005859 0.015625 -0.005859 0.050781 0.005859 -0.171875 0.005859 -0.164062 0.005859 0.015625 0.005859 0.050781 0.046875 -0.093750 0.046875 -0.062500 0.046875 0.093750 0.062500 -0.164062 0.062500 -0.132812 0.062500 -0.062500 0.062500 0.125000 0.093750 -0.132812 0.000000 0.000000</float_array><technique_common><accessor count="28" source="#Brush6-0-UV-array" stride="2"><param name="S" type="float"/><param name="T" type="float"/></accessor></technique_common></source><vertices id="Brush6-0-Vtx"><input semantic="POSITION" source="#Brush6-0-Pos"/></vertices><polylist count="14" material="textures/transit/evil4_techfloors_tfloor_rndholes"><input offset="0" semantic="VERTEX" source="#Brush6-0-Vtx"/><input offset="1" semantic="NORMAL" source="#Brush6-0-Normal"/><input offset="2" semantic="TEXCOORD" source="#Brush6-0-UV"/><vcount>4 4 4 4 4 4 3 3 4 4 6 4 4 4</vcount><p>53 13 9 54 13 4 55 13 5 52 13 10 49 12 15 50 12 16 51 12 12 48 12 11 45 11 18 46 11 17 47 11 13 44 11 14 41 10 4 42 10 9 43 10 10 40 10 5 37 9 15 38 9 11 39 9 12 36 9 16 33 8 14 34 8 13 35 8 17 32 8 18 30 7 22 31 7 26 29 7 23 27 6 23 28 6 26 26 6 22 23 5 0 24 5 23 25 5 22 22 5 1 19 4 3 20 4 8 21 4 21 18 4 25 13 3 2 14 3 3 15 3 25 16 3 24 17 3 19 12 3 6 9 2 23 10 2 0 11 2 1 8 2 22 5 1 6 6 1 19 7 1 20 4 1 7 1 0 20 2 0 21 3 0 8 0 0 7</p></polylist></mesh></geometry><geometry name="barrel-0" id="barrel-0"><mesh><source id="barrel-0-Pos"><float_array id="barrel-0-Pos-array" count="72">1.000000 20.000000 9.000000 -1.000000 20.000000 9.000000 -1.000000 20.000000 16.000000 1.000000 20.000000 16.000000 1.000000 19.000000 16.000000 1.000000 20.000000 16.000000 -1.000000 20.000000 16.000000 -1.000000 19.000000 16.000000 1.000000 19.000000 9.000000 1.000000 20.000000 9.000000 1.000000 20.000000 16.000000 1.000000 19.000000 16.000000 -1.000000 19.000000 9.000000 1.000000 19.000000 9.000000 1.000000 19.000000 16.000000 -1.000000 19.000000 16.000000 -1.000000 20.000000 9.000000 1.000000 20.000000 9.000000 1.000000 19.000000 9.000000 -1.000000 19.000000 9.000000 -1.000000 19.000000 16.000000 -1.000000 20.000000 16.000000 -1.000000 20.000000 9.000000 -1.000000 19.000000 9.000000</float_array><technique_common><accessor count="24" source="#barrel-0-Pos-array" stride="3"><param name="X" type="float"/><param name="Y" type="float"/><param name="Z" type="float"/></accessor></technique_common></source><source id="barrel-0-Normal"><float_array id="barrel-0-Normal-array" count="18">0.000000 1.000000 0.000000 0.000000 0.000000 1.000000 1.000000 0.000000 0.000000 0.000000 -1.000000 0.000000 0.000000 0.000000 -1.000000 -1.000000 0.000000 0.000000</float_array><technique_common><accessor count="6" source="#barrel-0-Normal-array" stride="3"><param name="X" type="float"/><param name="Y" type="float"/><param name="Z" type="float"/></accessor></technique_common></source><source id="barrel-0-UV"><float_array id="barrel-0-UV-array" count="26">-0.007812 -0.156250 -0.007812 -0.148438 -0.007812 -0.125000 -0.007812 -0.070312 0.007812 -0.156250 0.007812 -0.148438 0.007812 -0.125000 0.007812 -0.070312 0.070312 -0.156250 0.070312 -0.148438 0.125000 -0.156250 0.125000 -0.148438 0.000000 0.000000</float_array><technique_common><accessor count="13" source="#barrel-0-UV-array" stride="2"><param name="S" type="float"/><param name="T" type="float"/></accessor></technique_common></source><vertices id="barrel-0-Vtx"><input semantic="POSITION" source="#barrel-0-Pos"/></vertices><polylist count="6" material="textures/transit/evil4_techfloors_tfloor_rndholes"><input offset="0" semantic="VERTEX" source="#barrel-0-Vtx"/><input offset="1" semantic="NORMAL" source="#barrel-0-Normal"/><input offset="2" semantic="TEXCOORD" source="#barrel-0-UV"/><vcount>4 4 4 4 4 4</vcount><p>21 5 10 22 5 8 23 5 9 20 5 11 17 4 4 18 4 5 19 4 1 16 4 0 13 3 7 14 3 6 15 3 2 12 3 3 9 2 8 10 2 10 11 2 11 8 2 9 5 1 4 6 1 0 7 1 1 4 1 5 1 0 3 2 0 2 3 0 6 0 0 7</p></polylist></mesh></geometry><geometry name="Brush9-0" id="Brush9-0"><mesh><source id="Brush9-0-Pos"><float_array id="Brush9-0-Pos-array" count="72">0.750000 24.000000 -7.250000 -0.750000 24.000000 -7.250000 -0.750000 24.000000 -2.000000 0.750000 24.000000 -2.000000 1.500000 22.000000 -0.500000 0.750000 24.000000 -2.000000 -0.750000 24.000000 -2.000000 -1.500000 22.000000 -0.500000 1.500000 22.000000 -8.000000 0.750000 24.000000 -7.250000 0.750000 24.000000 -2.000000 1.500000 22.000000 -0.500000 -1.500000 22.000000 -8.000000 1.500000 22.000000 -8.000000 1.500000 22.000000 -0.500000 -1.500000 22.000000 -0.500000 -0.750000 24.000000 -7.250000 0.750000 24.000000 -7.250000 1.500000 22.000000 -8.000000 -1.500000 22.000000 -8.000000 -1.500000 22.000000 -0.500000 -0.750000 24.000000 -2.000000 -0.750000 24.000000 -7.250000 -1.500000 22.000000 -8.000000</float_array><technique_common><accessor count="24" source="#Brush9-0-Pos-array" stride="3"><param name="X" type="float"/><param name="Y" type="float"/><param name="Z" type="float"/></accessor></technique_common></source><source id="Brush9-0-Normal"><float_array id="Brush9-0-Normal-array" count="18">0.000000 1.000000 0.000000 0.000000 0.600000 0.800000 0.936329 0.351123 0.000000 0.000000 -1.000000 0.000000 0.000000 0.351123 -0.936329 -0.936329 0.351123 0.000000</float_array><technique_common><accessor count="6" source="#Brush9-0-Normal-array" stride="3"><param name="X" type="float"/><param name="Y" type="float"/><param name="Z" type="float"/></accessor></technique_common></source><source id="Brush9-0-UV"><float_array id="Brush9-0-UV-array" count="34">-0.062500 -0.171875 -0.056641 -0.187500 -0.015625 -0.187500 -0.011719 -0.171875 -0.011719 0.003906 -0.011719 0.062500 -0.005859 -0.187500 -0.005859 0.015625 -0.005859 0.056641 -0.003906 -0.171875 0.005859 -0.187500 0.005859 0.015625 0.005859 0.056641 0.011719 -0.171875 0.011719 0.003906 0.011719 0.062500 0.000000 0.000000</float_array><technique_common><accessor count="17" source="#Brush9-0-UV-array" stride="2"><param name="S" type="float"/><param name="T" type="float"/></accessor></technique_common></source><vertices id="Brush9-0-Vtx"><input semantic="POSITION" source="#Brush9-0-Pos"/></vertices><polylist count="6" material="textures/transit/evil4_techfloors_tfloor_rndholes"><input offset="0" semantic="VERTEX" source="#Brush9-0-Vtx"/><input offset="1" semantic="NORMAL" source="#Brush9-0-Normal"/><input offset="2" semantic="TEXCOORD" source="#Brush9-0-UV"/><vcount>4 4 4 4 4 4</vcount><p>21 5 2 22 5 1 23 5 0 20 5 9 17 4 10 18 4 13 19 4 3 16 4 6 13 3 15 14 3 14 15 3 4 12 3 5 9 2 1 10 2 2 11 2 9 8 2 0 5 1 10 6 1 6 7 1 3 4 1 13 1 0 8 2 0 7 3 0 11 0 0 12</p></polylist></mesh></geometry></library_geometries>
<library_visual_scenes><visual_scene id="Scene" name="Scene">
<node layer="L1" id="body-0L1" name="body"><translate sid="translate">0.00000 0.00000 0.00000</translate><rotate sid="rotateZ">0 0 1 0.00000</rotate><rotate sid="rotateY">0 1 0 0.00000</rotate><rotate sid="rotateX">1 0 0 0.00000</rotate><scale sid="scale">1.0000 1.0000 1.0000</scale><instance_geometry url="#body-0"><bind_material><technique_common><instance_material symbol="textures/transit/evil4_techfloors_tfloor_rndholes" target="#textures/transit/evil4_techfloors_tfloor_rndholes"><bind_vertex_input input_semantic="TEXCOORD" input_set="1" semantic="CHANNEL1"/></instance_material></technique_common></bind_material></instance_geometry>
<node layer="L1" id="Brush6-0L1" name="turret"><translate sid="translate">0.00000 0.00000 0.00000</translate><rotate sid="rotateZ">0 0 1 0.00000</rotate><rotate sid="rotateY">0 1 0 0.00000</rotate><rotate sid="rotateX">1 0 0 0.00000</rotate><scale sid="scale">1.0000 1.0000 1.0000</scale><instance_geometry url="#Brush6-0"><bind_material><technique_common><instance_material symbol="textures/transit/evil4_techfloors_tfloor_rndholes" target="#textures/transit/evil4_techfloors_tfloor_rndholes"><bind_vertex_input input_semantic="TEXCOORD" input_set="1" semantic="CHANNEL1"/></instance_material></technique_common></bind_material></instance_geometry>
<node layer="L1" id="barrel-0L1" name="barrel"><translate sid="translate">0.00000 0.00000 0.00000</translate><rotate sid="rotateZ">0 0 1 0.00000</rotate><rotate sid="rotateY">0 1 0 0.00000</rotate><rotate sid="rotateX">1 0 0 0.00000</rotate><scale sid="scale">1.0000 1.0000 1.0000</scale><instance_geometry url="#barrel-0"><bind_material><technique_common><instance_material symbol="textures/transit/evil4_techfloors_tfloor_rndholes" target="#textures/transit/evil4_techfloors_tfloor_rndholes"><bind_vertex_input input_semantic="TEXCOORD" input_set="1" semantic="CHANNEL1"/></instance_material></technique_common></bind_material></instance_geometry></node>
<node layer="L1" id="Brush9-0L1" name="turret2"><translate sid="translate">0.00000 0.00000 0.00000</translate><rotate sid="rotateZ">0 0 1 0.00000</rotate><rotate sid="rotateY">0 1 0 0.00000</rotate><rotate sid="rotateX">1 0 0 0.00000</rotate><scale sid="scale">1.0000 1.0000 1.0000</scale><instance_geometry url="#Brush9-0"><bind_material><technique_common><instance_material symbol="textures/transit/evil4_techfloors_tfloor_rndholes" target="#textures/transit/evil4_techfloors_tfloor_rndholes"><bind_vertex_input input_semantic="TEXCOORD" input_set="1" semantic="CHANNEL1"/></instance_material></technique_common></bind_material></instance_geometry></node></node></node>
</visual_scene></library_visual_scenes>
<scene><instance_visual_scene url="#Scene"/></scene>
</COLLADA>